MIPS_test_wave.vcd
$date
     Apr 26, 2018       22:14:53
$end

$version
 SystemC 2.3.1-Accellera --- Feb 22 2018 21:52:05
$end

$timescale
     1 ps
$end

$scope module SystemC $end
$var wire    1  aaaaa  clk       $end
$var wire    1  aaaab  reset       $end
$var wire    5  aaaac  mem_addr [4:0]  $end
$var wire    1  aaaad  mem_w_r       $end
$var wire    1  aaaae  inst_data       $end
$var wire    5  aaaaf  A_addr [4:0]  $end
$var wire    5  aaaag  B_addr [4:0]  $end
$var wire    1  aaaah  regFile_w_r       $end
$var wire    1  aaaai  enable       $end
$var wire    1  aaaaj  wb_mux       $end
$var wire    1  aaaak  alu_sel       $end
$var wire    1  aaaal  mux_sel       $end
$var wire    3  aaaam  pc [2:0]  $end
$var wire   128  aaaan  fetch_A [127:0]  $end
$var wire   128  aaaao  fetch_B [127:0]  $end
$var wire   128  aaaap  Dec_A [127:0]  $end
$var wire   128  aaaaq  Dec_B [127:0]  $end
$var wire   128  aaaar  Dec_Imm [127:0]  $end
$var wire   128  aaaas  ALU_out [127:0]  $end
$var wire   128  aaaat  mem_out [127:0]  $end
$var wire    1  aaaau  enc_dec       $end
$var wire    2  aaaav  burst_op [1:0]  $end
$var wire    1  aaaaw  bus_wb       $end
$var wire    1  aaaax  bus_trigger       $end
$var wire    2  aaaay  block_addr [1:0]  $end
$var wire    5  aaaaz  cell_addr [4:0]  $end
$var wire   32  aaaba  AMBA_in [31:0]  $end
$var wire   32  aaabb  AMBA_out [31:0]  $end
$var wire    1  aaabc  amba_mem_w_r       $end
$upscope $end
$enddefinitions  $end

$comment
All initial values are dumped below at time 0 sec = 0 timescale units.
$end

$dumpvars
1aaaaa
1aaaab
bXXXXX aaaac
0aaaad
1aaaae
bXXXXX aaaaf
bXXXXX aaaag
0aaaah
0aaaai
0aaaaj
xaaaak
xaaaal
b1 aaaam
bXXXXXXXXXXXXXXXXXXXXXXXXXXXXXXXXXXXXXXXXXXXXXXXXXXXXXXXXXXXXXXXXXXXXXXXXXXXXXXXXXXXXXXXXXXXXXXXXXXXXXXXXXXXXXXXXXXXXXXXXXXXXXXXX aaaan
bXXXXXXXXXXXXXXXXXXXXXXXXXXXXXXXXXXXXXXXXXXXXXXXXXXXXXXXXXXXXXXXXXXXXXXXXXXXXXXXXXXXXXXXXXXXXXXXXXXXXXXXXXXXXXXXXXXXXXXXXXXXXXXXX aaaao
bXXXXXXXXXXXXXXXXXXXXXXXXXXXXXXXXXXXXXXXXXXXXXXXXXXXXXXXXXXXXXXXXXXXXXXXXXXXXXXXXXXXXXXXXXXXXXXXXXXXXXXXXXXXXXXXXXXXXXXXXXXXXXXXX aaaap
bXXXXXXXXXXXXXXXXXXXXXXXXXXXXXXXXXXXXXXXXXXXXXXXXXXXXXXXXXXXXXXXXXXXXXXXXXXXXXXXXXXXXXXXXXXXXXXXXXXXXXXXXXXXXXXXXXXXXXXXXXXXXXXXX aaaaq
bXXXXXXXXXXXXXXXXXXXXXXXXXXXXXXXXXXXXXXXXXXXXXXXXXXXXXXXXXXXXXXXXXXXXXXXXXXXXXXXXXXXXXXXXXXXXXXXXXXXXXXXXXXXXXXXXXXXXXXXXXXXXXXXX aaaar
b11111111111111111111111111111111111111111111111111111111111111111111111111111111111111111111111111111111111111111111111111100000 aaaas
bXXXXXXXXXXXXXXXXXXXXXXXXXXXXXXXXXXXXXXXXXXXXXXXXXXXXXXXXXXXXXXXXXXXXXXXXXXXXXXXXXXXXXXXXXXXXXXXXXXXXXXXXXXXXXXXXXXXXXXXXXXXXXXXX aaaat
0aaaau
bXX aaaav
0aaaaw
0aaaax
b0 aaaay
b0 aaaaz
bXXXXXXXXXXXXXXXXXXXXXXXXXXXXXXXX aaaba
bXXXXXXXXXXXXXXXXXXXXXXXXXXXXXXXX aaabb
0aaabc
$end

#5000
0aaaaa
b1010000000000000000000000000000000000000000000000000000000000000000000000000000000000000000000000000000000000000000000000000 aaaat

#10000
1aaaaa

#15000
0aaaaa

#20000
1aaaaa

#25000
0aaaaa

#30000
1aaaaa

#35000
0aaaaa

#40000
1aaaaa
0aaaab
b101 aaaac
0aaaae
1aaaau
b0 aaaav
1aaaaw
1aaaax
b101 aaaaz

#45000
0aaaaa
b0 aaaan
b0 aaaao
b11111111111111111111111111111111111111111111111111111111111111111111111111111111111111111111111111111111111111111111111111100001 aaaas
b11100000001101110000011100110100 aaaba

#50000
1aaaaa
b1 aaaay

#55000
0aaaaa
b110001001100011001100010100010 aaaba

#60000
1aaaaa
b10 aaaay

#65000
0aaaaa
b10001000010110100011000010001101 aaaba

#70000
1aaaaa
b11 aaaay

#75000
0aaaaa
b110010010000111111011010101000 aaaba

#80000
1aaaaa

#85000
0aaaaa

#90000
1aaaaa

#95000
0aaaaa

#100000
1aaaaa
b111001001001011000010000011101 aaabb
1aaabc

#105000
0aaaaa

#110000
1aaaaa
b10 aaaay
b10110111000000100111111011 aaabb

#115000
0aaaaa

#120000
1aaaaa
b1 aaaay
b11011100000100011000010110010111 aaabb

#125000
0aaaaa

#130000
1aaaaa
b0 aaaay
b11001011010100000101100110010 aaabb

